{
"feature":"fresh_today",
"filters":{
"category":false,
"exclude":false},
"current_page":1,
"total_pages":989,
"total_items":19764,
"photos":[{
"id":4729148,
"name":"Looking Back",
"description":"",
"times_viewed":0,
"rating":0,
"created_at":"2012-02-01T01:53:34Z",
"category":11,
"privacy":false,
"votes_count":0,
"favorites_count":0,
"comments_count":0,
"nsfw":false,
"image_url":"http://pcdn.500px.net/4729148/12d734203b96664f4e28e478f79ba80f0a717417/2.jpg",
"user":{
"id":521172,
"username":"lorrainehudgins",
"firstname":"Lorraine",
"lastname":"Hudgins",
"city":"Hampton",
"country":"USA",
"upgrade_status":0,
"fullname":"Lorraine Hudgins",
"userpic_url":"http://acdn.500px.net/521172/5b792c4abf3715a1e20a824a3f80cbd89ebf47c8/1.jpg?1"}},{
"id":4729146,
"name":"Untitled",
"description":null,
"times_viewed":0,
"rating":0,
"created_at":"2012-02-01T01:53:22Z",
"category":0,
"privacy":false,
"votes_count":0,
"favorites_count":0,
"comments_count":0,
"nsfw":false,
"image_url":"http://pcdn.500px.net/4729146/cdac5826939df8966aee06906a5c39f322b136b3/2.jpg",
"user":{
"id":556268,
"username":"AlexandraGunn",
"firstname":"Alexandra",
"lastname":"Gunn",
"city":"Toronto",
"country":"Canada",
"upgrade_status":0,
"fullname":"Alexandra Gunn",
"userpic_url":"/graphics/userpic.png"}},{
"id":4729142,
"name":"Russian Orthodox Church",
"description":"",
"times_viewed":0,
"rating":0,
"created_at":"2012-02-01T01:52:39Z",
"category":9,
"privacy":false,
"votes_count":0,
"favorites_count":0,
"comments_count":0,
"nsfw":false,
"image_url":"http://pcdn.500px.net/4729142/c79d54d7fec324394ee77b6a9e65c1883da3d224/2.jpg",
"user":{
"id":303432,
"username":"WilliamPowePhotography",
"firstname":"William ",
"lastname":"Powe",
"city":"Middletown",
"country":"USA",
"upgrade_status":0,
"fullname":"William  Powe",
"userpic_url":"http://acdn.500px.net/303432.jpg"}},{
"id":4729141,
"name":"Konak Pier",
"description":"",
"times_viewed":0,
"rating":0,
"created_at":"2012-02-01T01:52:24Z",
"category":21,
"privacy":false,
"votes_count":0,
"favorites_count":0,
"comments_count":0,
"nsfw":false,
"image_url":"http://pcdn.500px.net/4729141/89ab1709ecb88e24f70d81e217677926483e7413/2.jpg",
"user":{
"id":542916,
"username":"EgeUstundag",
"firstname":"Ege",
"lastname":"Ustundag",
"city":"Izmir",
"country":"Turkey",
"upgrade_status":1,
"fullname":"Ege Ustundag",
"userpic_url":"http://acdn.500px.net/542916/162c2029f918ab64481635d4dce99cfff1ffc166/1.jpg?83"}},{
"id":4729138,
"name":"Pregnant B&W version",
"description":"",
"times_viewed":1,
"rating":0,
"created_at":"2012-02-01T01:52:15Z",
"category":7,
"privacy":false,
"votes_count":0,
"favorites_count":0,
"comments_count":0,
"nsfw":false,
"image_url":"http://pcdn.500px.net/4729138/1afba950c392cdfafa2a1209fd919005beb7ab25/2.jpg",
"user":{
"id":296934,
"username":"terjthor",
"firstname":"Terje",
"lastname":"Thorsen",
"city":"Bergen",
"country":"Norway",
"upgrade_status":0,
"fullname":"Terje Thorsen",
"userpic_url":"http://acdn.500px.net/296934/2ababc53d8f0a72e89d8ee299c24c56ce1f3472f/1.jpg?0"}},{
"id":4729137,
"name":"Fly Guy",
"description":"",
"times_viewed":0,
"rating":0,
"created_at":"2012-02-01T01:52:14Z",
"category":20,
"privacy":false,
"votes_count":0,
"favorites_count":0,
"comments_count":0,
"nsfw":false,
"image_url":"http://pcdn.500px.net/4729137/aaa1cd0164f77b4a2f853f9499ae978535884ee2/2.jpg",
"user":{
"id":477803,
"username":"SantanaRoussell",
"firstname":"Santana",
"lastname":"Roussell",
"city":null,
"country":null,
"upgrade_status":0,
"fullname":"Santana Roussell",
"userpic_url":"/graphics/userpic.png"}},{
"id":4729131,
"name":"Kate",
"description":"",
"times_viewed":6,
"rating":0,
"created_at":"2012-02-01T01:51:03Z",
"category":7,
"privacy":false,
"votes_count":0,
"favorites_count":0,
"comments_count":0,
"nsfw":false,
"image_url":"http://pcdn.500px.net/4729131/1ffb3d83479e0552f244c70bfd78219b6d4eff2b/2.jpg",
"user":{
"id":215295,
"username":"brukva",
"firstname":"Sasha",
"lastname":"Larina",
"city":"Moscow",
"country":"Russia",
"upgrade_status":0,
"fullname":"Sasha Larina",
"userpic_url":"http://acdn.500px.net/215295.jpg"}},{
"id":4729130,
"name":"Field on the Road",
"description":"",
"times_viewed":1,
"rating":0,
"created_at":"2012-02-01T01:51:06Z",
"category":8,
"privacy":false,
"votes_count":0,
"favorites_count":0,
"comments_count":0,
"nsfw":false,
"image_url":"http://pcdn.500px.net/4729130/98affbffe82d9259c392591f1961e52dbc3a8b80/2.jpg",
"user":{
"id":566020,
"username":"nicholasj309",
"firstname":"Nicholas",
"lastname":"Klein",
"city":"Fort Wayne",
"country":"America",
"upgrade_status":0,
"fullname":"Nicholas Klein",
"userpic_url":"http://acdn.500px.net/566020/4e46c094c7d2bd36bdcf2b3e28b95daa777bc3ba/1.jpg?127"}},{
"id":4729128,
"name":"Leaf in Sun",
"description":"",
"times_viewed":1,
"rating":0,
"created_at":"2012-02-01T01:51:04Z",
"category":18,
"privacy":false,
"votes_count":0,
"favorites_count":0,
"comments_count":0,
"nsfw":false,
"image_url":"http://pcdn.500px.net/4729128/2c8a8be0b79ac3575e377c9057b5c6338b736b45/2.jpg",
"user":{
"id":566020,
"username":"nicholasj309",
"firstname":"Nicholas",
"lastname":"Klein",
"city":"Fort Wayne",
"country":"America",
"upgrade_status":0,
"fullname":"Nicholas Klein",
"userpic_url":"http://acdn.500px.net/566020/4e46c094c7d2bd36bdcf2b3e28b95daa777bc3ba/1.jpg?127"}},{
"id":4729127,
"name":"Blurred Reality",
"description":"",
"times_viewed":1,
"rating":0,
"created_at":"2012-02-01T01:51:01Z",
"category":8,
"privacy":false,
"votes_count":0,
"favorites_count":0,
"comments_count":0,
"nsfw":false,
"image_url":"http://pcdn.500px.net/4729127/293cafb43ff4d8727dc45954fa209a96ac0aa56f/2.jpg",
"user":{
"id":566020,
"username":"nicholasj309",
"firstname":"Nicholas",
"lastname":"Klein",
"city":"Fort Wayne",
"country":"America",
"upgrade_status":0,
"fullname":"Nicholas Klein",
"userpic_url":"http://acdn.500px.net/566020/4e46c094c7d2bd36bdcf2b3e28b95daa777bc3ba/1.jpg?127"}},{
"id":4729126,
"name":"Untitled",
"description":"",
"times_viewed":1,
"rating":0,
"created_at":"2012-02-01T01:50:55Z",
"category":19,
"privacy":false,
"votes_count":0,
"favorites_count":0,
"comments_count":0,
"nsfw":false,
"image_url":"http://pcdn.500px.net/4729126/d906f784b933b01eb459b6112f8063e697243404/2.jpg",
"user":{
"id":495452,
"username":"rzandrew",
"firstname":"",
"lastname":"",
"city":"",
"country":"",
"upgrade_status":0,
"fullname":"rzandrew",
"userpic_url":"http://acdn.500px.net/495452/b2265b0cac7ae7d769bd8941cf7917770aa16c75/1.jpg?127"}},{
"id":4729125,
"name":"Sunroof",
"description":"",
"times_viewed":2,
"rating":0,
"created_at":"2012-02-01T01:50:59Z",
"category":10,
"privacy":false,
"votes_count":0,
"favorites_count":0,
"comments_count":0,
"nsfw":false,
"image_url":"http://pcdn.500px.net/4729125/98367c6adce1624eb16396e46ae9657b378b65ad/2.jpg",
"user":{
"id":566020,
"username":"nicholasj309",
"firstname":"Nicholas",
"lastname":"Klein",
"city":"Fort Wayne",
"country":"America",
"upgrade_status":0,
"fullname":"Nicholas Klein",
"userpic_url":"http://acdn.500px.net/566020/4e46c094c7d2bd36bdcf2b3e28b95daa777bc3ba/1.jpg?127"}},{
"id":4729124,
"name":"Water in Motion",
"description":"",
"times_viewed":1,
"rating":0,
"created_at":"2012-02-01T01:50:57Z",
"category":22,
"privacy":false,
"votes_count":0,
"favorites_count":0,
"comments_count":0,
"nsfw":false,
"image_url":"http://pcdn.500px.net/4729124/1c58c636456b82518bd23fd2ee4a0263a4535326/2.jpg",
"user":{
"id":566020,
"username":"nicholasj309",
"firstname":"Nicholas",
"lastname":"Klein",
"city":"Fort Wayne",
"country":"America",
"upgrade_status":0,
"fullname":"Nicholas Klein",
"userpic_url":"http://acdn.500px.net/566020/4e46c094c7d2bd36bdcf2b3e28b95daa777bc3ba/1.jpg?127"}},{
"id":4729123,
"name":"Clouds",
"description":"",
"times_viewed":1,
"rating":0,
"created_at":"2012-02-01T01:50:55Z",
"category":10,
"privacy":false,
"votes_count":0,
"favorites_count":0,
"comments_count":0,
"nsfw":false,
"image_url":"http://pcdn.500px.net/4729123/a53bb08984d5c296176aa4924a2321f243aab152/2.jpg",
"user":{
"id":566020,
"username":"nicholasj309",
"firstname":"Nicholas",
"lastname":"Klein",
"city":"Fort Wayne",
"country":"America",
"upgrade_status":0,
"fullname":"Nicholas Klein",
"userpic_url":"http://acdn.500px.net/566020/4e46c094c7d2bd36bdcf2b3e28b95daa777bc3ba/1.jpg?127"}},{
"id":4729122,
"name":"Crossroads",
"description":"",
"times_viewed":1,
"rating":0,
"created_at":"2012-02-01T01:50:53Z",
"category":8,
"privacy":false,
"votes_count":0,
"favorites_count":0,
"comments_count":0,
"nsfw":false,
"image_url":"http://pcdn.500px.net/4729122/31e65292743f0f70a0017e159a387ffecf35da30/2.jpg",
"user":{
"id":566020,
"username":"nicholasj309",
"firstname":"Nicholas",
"lastname":"Klein",
"city":"Fort Wayne",
"country":"America",
"upgrade_status":0,
"fullname":"Nicholas Klein",
"userpic_url":"http://acdn.500px.net/566020/4e46c094c7d2bd36bdcf2b3e28b95daa777bc3ba/1.jpg?127"}},{
"id":4729121,
"name":"Film Bliss",
"description":"",
"times_viewed":1,
"rating":0,
"created_at":"2012-02-01T01:50:48Z",
"category":15,
"privacy":false,
"votes_count":0,
"favorites_count":0,
"comments_count":0,
"nsfw":false,
"image_url":"http://pcdn.500px.net/4729121/b9a4d4788c4b1a5bb00212545e04a90e24ce2980/2.jpg",
"user":{
"id":566020,
"username":"nicholasj309",
"firstname":"Nicholas",
"lastname":"Klein",
"city":"Fort Wayne",
"country":"America",
"upgrade_status":0,
"fullname":"Nicholas Klein",
"userpic_url":"http://acdn.500px.net/566020/4e46c094c7d2bd36bdcf2b3e28b95daa777bc3ba/1.jpg?127"}},{
"id":4729120,
"name":"Lego Party",
"description":"",
"times_viewed":1,
"rating":0,
"created_at":"2012-02-01T01:50:46Z",
"category":15,
"privacy":false,
"votes_count":0,
"favorites_count":0,
"comments_count":0,
"nsfw":false,
"image_url":"http://pcdn.500px.net/4729120/4a689d3f49f2f3fac2f3d0f95e17bf41b6b771de/2.jpg",
"user":{
"id":566020,
"username":"nicholasj309",
"firstname":"Nicholas",
"lastname":"Klein",
"city":"Fort Wayne",
"country":"America",
"upgrade_status":0,
"fullname":"Nicholas Klein",
"userpic_url":"http://acdn.500px.net/566020/4e46c094c7d2bd36bdcf2b3e28b95daa777bc3ba/1.jpg?127"}},{
"id":4729119,
"name":"Ninja Turtle Gladiator",
"description":"",
"times_viewed":1,
"rating":0,
"created_at":"2012-02-01T01:50:45Z",
"category":7,
"privacy":false,
"votes_count":0,
"favorites_count":0,
"comments_count":0,
"nsfw":false,
"image_url":"http://pcdn.500px.net/4729119/eae70e67dc6544753ff64197471479c89495269a/2.jpg",
"user":{
"id":566020,
"username":"nicholasj309",
"firstname":"Nicholas",
"lastname":"Klein",
"city":"Fort Wayne",
"country":"America",
"upgrade_status":0,
"fullname":"Nicholas Klein",
"userpic_url":"http://acdn.500px.net/566020/4e46c094c7d2bd36bdcf2b3e28b95daa777bc3ba/1.jpg?127"}},{
"id":4729117,
"name":"Jardim da minha av\u00f3",
"description":"",
"times_viewed":0,
"rating":0,
"created_at":"2012-02-01T01:50:29Z",
"category":18,
"privacy":false,
"votes_count":0,
"favorites_count":0,
"comments_count":0,
"nsfw":false,
"image_url":"http://pcdn.500px.net/4729117/d75f5a5c9c48c6b8cbb2b5b11f5d1175d83798ed/2.jpg",
"user":{
"id":566029,
"username":"EMariee",
"firstname":"Elisa",
"lastname":"Ribeiro",
"city":"Torres Vedras",
"country":"Portugal",
"upgrade_status":0,
"fullname":"Elisa Ribeiro",
"userpic_url":"http://acdn.500px.net/566029/f8cffab71e747eec4e334f78b264d6a7952dafdd/1.jpg?127"}},{
"id":4729116,
"name":"Jo\u00e3o",
"description":"",
"times_viewed":0,
"rating":0,
"created_at":"2012-02-01T01:50:25Z",
"category":0,
"privacy":false,
"votes_count":0,
"favorites_count":0,
"comments_count":0,
"nsfw":false,
"image_url":"http://pcdn.500px.net/4729116/74c9be073912da0a14bd1de81530455aef84eda3/2.jpg",
"user":{
"id":566029,
"username":"EMariee",
"firstname":"Elisa",
"lastname":"Ribeiro",
"city":"Torres Vedras",
"country":"Portugal",
"upgrade_status":0,
"fullname":"Elisa Ribeiro",
"userpic_url":"http://acdn.500px.net/566029/f8cffab71e747eec4e334f78b264d6a7952dafdd/1.jpg?127"}}]}

