{
"feature":"popular",
"filters":{
"category":false,
"exclude":false},
"current_page":1,
"total_pages":250,
"total_items":5000,
"photos":[{
"id":5105336,
"name":"Lion in Danish Zoo",
"description":"",
"times_viewed":1964,
"rating":99.3,
"created_at":"2012-02-17T09:55:22-05:00",
"category":11,
"privacy":false,
"votes_count":250,
"favorites_count":118,
"comments_count":89,
"nsfw":false,
"image_url":"http://pcdn.500px.net/5105336/ff1bd38b9cbffd438a962a1362cd6f90d66fc879/2.jpg",
"user":{
"id":530788,
"username":"Leifgiv",
"firstname":"Leif",
"lastname":"Giversen",
"city":"H\u00f8jbjerg",
"country":"Denmark",
"upgrade_status":0,
"fullname":"Leif Giversen",
"userpic_url":"/graphics/userpic.png"}},{
"id":5111049,
"name":"Antarctic photo tours, 4 all skill levels",
"description":"I am doing two workshops down in Antarctica later this year if anyone has an interest. http://westlightimages.com/polar_tours/antarctic.html",
"times_viewed":1785,
"rating":99.2,
"created_at":"2012-02-17T14:50:25-05:00",
"category":11,
"privacy":false,
"votes_count":166,
"favorites_count":53,
"comments_count":48,
"nsfw":false,
"image_url":"http://pcdn.500px.net/5111049/4283c5a075bc3fe4c410ecf042b9510e1301d999/2.jpg",
"user":{
"id":201603,
"username":"westlight",
"firstname":"David C.",
"lastname":"Schultz",
"city":"Park City",
"country":"United States",
"upgrade_status":1,
"fullname":"David C. Schultz",
"userpic_url":"http://acdn.500px.net/201603.jpg"}},{
"id":5108444,
"name":"Vall\u00e9e de la sagne",
"description":"La Vall\u00e9e de la sagne dans le canton de Neuch\u00e2tel",
"times_viewed":1105,
"rating":99.1,
"created_at":"2012-02-17T12:43:43-05:00",
"category":8,
"privacy":false,
"votes_count":191,
"favorites_count":97,
"comments_count":85,
"nsfw":false,
"image_url":"http://pcdn.500px.net/5108444/cd34c03e65d77024d30060f895c964a94e91c311/2.jpg",
"user":{
"id":601325,
"username":"vincent-bourrut",
"firstname":"Vincent",
"lastname":"BOURRUT",
"city":"La Neuveville",
"country":"Switzerland",
"upgrade_status":0,
"fullname":"Vincent BOURRUT",
"userpic_url":"http://acdn.500px.net/601325/f2e91b10c69ea4038ce846d841270485d22fd3a0/1.jpg?127"}},{
"id":5108159,
"name":"Well of Souls",
"description":"inspired by the music of STEVE ROACH & VIDNA OBMANA\r\nOne of my fevourite pictures of mine. Enjoy.",
"times_viewed":1916,
"rating":99.1,
"created_at":"2012-02-17T12:29:50-05:00",
"category":24,
"privacy":false,
"votes_count":287,
"favorites_count":172,
"comments_count":86,
"nsfw":false,
"image_url":"http://pcdn.500px.net/5108159/6aba897dcf2a092946ad254b2c5d5cb31618767e/2.jpg",
"user":{
"id":600313,
"username":"Karezoid",
"firstname":"Karezoid",
"lastname":"Michal Karcz ",
"city":"Warsaw",
"country":"Poland",
"upgrade_status":0,
"fullname":"Karezoid Michal Karcz ",
"userpic_url":"http://acdn.500px.net/600313/8c56f38fe76a46ca8658efde4165a533adbb4582/1.jpg?127"}},{
"id":5106001,
"name":"warriors",
"description":"",
"times_viewed":817,
"rating":99.0,
"created_at":"2012-02-17T10:31:58-05:00",
"category":7,
"privacy":false,
"votes_count":118,
"favorites_count":52,
"comments_count":47,
"nsfw":false,
"image_url":"http://pcdn.500px.net/5106001/fb2104ed5f8105c6eba7523fab454809881db770/2.jpg",
"user":{
"id":29232,
"username":"pinksword",
"firstname":"pink",
"lastname":"sword",
"city":"",
"country":"",
"upgrade_status":0,
"fullname":"pink sword",
"userpic_url":"http://acdn.500px.net/29232/73d5569263a48de8c9eb58285b59c8d82311dc60/1.jpg?0"}},{
"id":5108383,
"name":"The frozen king",
"description":"frozen tree in winter",
"times_viewed":708,
"rating":98.9,
"created_at":"2012-02-17T12:40:51-05:00",
"category":8,
"privacy":false,
"votes_count":95,
"favorites_count":48,
"comments_count":37,
"nsfw":false,
"image_url":"http://pcdn.500px.net/5108383/d7d6154cd08d8274156b681601df47a661657455/2.jpg",
"user":{
"id":601325,
"username":"vincent-bourrut",
"firstname":"Vincent",
"lastname":"BOURRUT",
"city":"La Neuveville",
"country":"Switzerland",
"upgrade_status":0,
"fullname":"Vincent BOURRUT",
"userpic_url":"http://acdn.500px.net/601325/f2e91b10c69ea4038ce846d841270485d22fd3a0/1.jpg?127"}},{
"id":5106781,
"name":"Autumnal Reverie...",
"description":"",
"times_viewed":1311,
"rating":98.9,
"created_at":"2012-02-17T11:14:53-05:00",
"category":8,
"privacy":false,
"votes_count":200,
"favorites_count":110,
"comments_count":76,
"nsfw":false,
"image_url":"http://pcdn.500px.net/5106781/59c2655bc32eadaf1d842d033b2e2239365f3e2a/2.jpg",
"user":{
"id":410032,
"username":"pablook",
"firstname":"Pawel",
"lastname":"Kucharski",
"city":"Opole",
"country":"Poland",
"upgrade_status":0,
"fullname":"Pawel Kucharski",
"userpic_url":"http://acdn.500px.net/410032/22ef3eaaf7ad31c2bd39e35bc14a7dbce5efd5c1/1.jpg?127"}},{
"id":5104034,
"name":"Like Ditrih",
"description":"",
"times_viewed":1033,
"rating":98.9,
"created_at":"2012-02-17T08:35:57-05:00",
"category":14,
"privacy":false,
"votes_count":109,
"favorites_count":43,
"comments_count":39,
"nsfw":false,
"image_url":"http://pcdn.500px.net/5104034/0bf1c2f0879528e012789971a62bac7b983a7ca7/2.jpg?t=1329485808",
"user":{
"id":8829,
"username":"sergelee",
"firstname":"Serge",
"lastname":"Lee",
"city":"Moscow",
"country":"Russia",
"upgrade_status":0,
"fullname":"Serge Lee",
"userpic_url":"http://acdn.500px.net/8829/e1f4fca3a3b7d96a4523fe3e87cb92ceebe0e617/1.jpg?127"}},{
"id":5103484,
"name":"Tiger",
"description":"Tiger",
"times_viewed":1849,
"rating":98.8,
"created_at":"2012-02-17T08:02:10-05:00",
"category":11,
"privacy":false,
"votes_count":237,
"favorites_count":137,
"comments_count":79,
"nsfw":false,
"image_url":"http://pcdn.500px.net/5103484/a9e206c3cc03843db895caa43d8888108d40eaca/2.jpg",
"user":{
"id":104026,
"username":"JasenDurant",
"firstname":"Jasen",
"lastname":"Durant",
"city":"Montreal",
"country":"Canada",
"upgrade_status":0,
"fullname":"Jasen Durant",
"userpic_url":"http://acdn.500px.net/104026.jpg"}},{
"id":5107687,
"name":"Lanterns 3",
"description":"",
"times_viewed":730,
"rating":98.7,
"created_at":"2012-02-17T12:03:32-05:00",
"category":9,
"privacy":false,
"votes_count":92,
"favorites_count":36,
"comments_count":61,
"nsfw":false,
"image_url":"http://pcdn.500px.net/5107687/faddbf23c2212932f9978e0d14822be861760332/2.jpg",
"user":{
"id":52980,
"username":"Allora",
"firstname":"Alla ",
"lastname":"Lora",
"city":"",
"country":"Ukraine",
"upgrade_status":0,
"fullname":"Alla  Lora",
"userpic_url":"http://acdn.500px.net/52980.jpg"}},{
"id":5103824,
"name":"qafela",
"description":"",
"times_viewed":741,
"rating":98.7,
"created_at":"2012-02-17T08:22:40-05:00",
"category":0,
"privacy":false,
"votes_count":86,
"favorites_count":40,
"comments_count":42,
"nsfw":false,
"image_url":"http://pcdn.500px.net/5103824/7a2fa826f34a1843666637ab63aeef0df2febb1a/2.jpg",
"user":{
"id":601275,
"username":"de7ia",
"firstname":"dia",
"lastname":" ftisy",
"city":"",
"country":"libya",
"upgrade_status":0,
"fullname":"dia  ftisy",
"userpic_url":"http://acdn.500px.net/601275/46f569f4dd9a44e2b2129a158d6ab9b8419afa22/1.jpg?56"}},{
"id":5103396,
"name":"Untitled",
"description":"",
"times_viewed":2943,
"rating":98.7,
"created_at":"2012-02-17T07:56:37-05:00",
"category":7,
"privacy":false,
"votes_count":366,
"favorites_count":177,
"comments_count":90,
"nsfw":false,
"image_url":"http://pcdn.500px.net/5103396/613651175158e7cafc0c52f9e01da17f62cfb535/2.jpg",
"user":{
"id":554274,
"username":"natansuglob",
"firstname":"\u041d\u0430\u0442\u0430\u043d",
"lastname":"\u0421\u0443\u0433\u043b\u043e\u0431",
"city":"Kostroma",
"country":"Russia",
"upgrade_status":0,
"fullname":"\u041d\u0430\u0442\u0430\u043d \u0421\u0443\u0433\u043b\u043e\u0431",
"userpic_url":"http://acdn.500px.net/554274/8123e925bd48029f17600c57d36633f139f64249/1.jpg?127"}},{
"id":5100157,
"name":"Future Man - 2 - ",
"description":"My own photo. Thank you very much for your time.\r\n\r<a href=\"http://500px.com/carasionut/blog/26713\">500px.com/carasionut/blog/26713</a>\r\n\r\nLately i was thing to start prepare for next exhibition, i don't know when will be, but i prepare :) So, i was thinking to change aspect for some of my work to make it a series since was very appreciated by user all around word. Hope you like this new size of my work called - THE GIANTS FROM A SMALLER HEART - ",
"times_viewed":1543,
"rating":98.7,
"created_at":"2012-02-17T04:08:20-05:00",
"category":24,
"privacy":false,
"votes_count":185,
"favorites_count":94,
"comments_count":51,
"nsfw":false,
"image_url":"http://pcdn.500px.net/5100157/1cb4635862763473d9b8b334ff7cebd8cc6c8a2a/2.jpg",
"user":{
"id":207153,
"username":"carasionut",
"firstname":"Caras",
"lastname":"Ionut",
"city":"Iasi",
"country":"Romania",
"upgrade_status":2,
"fullname":"Caras Ionut",
"userpic_url":"http://acdn.500px.net/207153/dce3e897d19aa4b18a817972532777b565919d2c/1.jpg?127"}},{
"id":5104745,
"name":"Can't Let Go",
"description":"",
"times_viewed":1537,
"rating":98.6,
"created_at":"2012-02-17T09:20:44-05:00",
"category":18,
"privacy":false,
"votes_count":197,
"favorites_count":77,
"comments_count":72,
"nsfw":false,
"image_url":"http://pcdn.500px.net/5104745/3bdea339fde9ff7b8cb013d11503daf24dedcd08/2.jpg",
"user":{
"id":201603,
"username":"westlight",
"firstname":"David C.",
"lastname":"Schultz",
"city":"Park City",
"country":"United States",
"upgrade_status":1,
"fullname":"David C. Schultz",
"userpic_url":"http://acdn.500px.net/201603.jpg"}},{
"id":5103106,
"name":"Untitled",
"description":"",
"times_viewed":878,
"rating":98.6,
"created_at":"2012-02-17T07:37:59-05:00",
"category":0,
"privacy":false,
"votes_count":71,
"favorites_count":40,
"comments_count":16,
"nsfw":false,
"image_url":"http://pcdn.500px.net/5103106/a90a17c3b2fe6d3fddc502ab56c10fb67464edb9/2.jpg",
"user":{
"id":601807,
"username":"ledenyova",
"firstname":"Yulia",
"lastname":"Ledenyova",
"city":"http://ledenyova.io.ua/",
"country":"Ukraine",
"upgrade_status":0,
"fullname":"Yulia Ledenyova",
"userpic_url":"http://acdn.500px.net/601807/872f941458e6f9ac2c88e993dcae60070ebd6a3b/1.jpg?127"}},{
"id":5107368,
"name":"Wildlife Bootcamp",
"description":"This beauty is a lynx and the shot was taken on our <i>Wildlife Photography Bootcamp</i> in Spain - with over 100 different species from the five continents, this is the perfect place to learn all the basics of wildlife photography.\r\n\r\nThe animals live in semi-wild conditions in stunning scenery. Getting a good shot of a lynx in the wild is close to impossible (they're endangered), but on this workshop anyone can get shots like this.\r\n\r\nAnd if this one looks familiar, then you're right: I have posted a black and white version a couple of months ago. This is the original - let me know which one you prefer.\r\n\r\nIf you're interested in joining me on our next Wildlife Bootcamp in Spain, please have a look on my website for more information:\r\n\r\n<a href=\"http://www.squiver.com\" rel=\"nofollow\">Squiver Photo Tours & Workshops</a>",
"times_viewed":1121,
"rating":98.5,
"created_at":"2012-02-17T11:47:05-05:00",
"category":11,
"privacy":false,
"votes_count":144,
"favorites_count":53,
"comments_count":59,
"nsfw":false,
"image_url":"http://pcdn.500px.net/5107368/00110a6063e02036e2c1ce92ce14b332920880f7/2.jpg",
"user":{
"id":132499,
"username":"MarselvanOosten",
"firstname":"Marsel",
"lastname":"van Oosten",
"city":"Amsterdam",
"country":"The Netherlands",
"upgrade_status":0,
"fullname":"Marsel van Oosten",
"userpic_url":"http://acdn.500px.net/132499.jpg"}},{
"id":5099438,
"name":"Lueurs du Quai B\u00e9lu",
"description":"",
"times_viewed":2703,
"rating":98.5,
"created_at":"2012-02-17T03:14:56-05:00",
"category":9,
"privacy":false,
"votes_count":265,
"favorites_count":111,
"comments_count":87,
"nsfw":false,
"image_url":"http://pcdn.500px.net/5099438/46c76ea6cc0270bc15b895ffbf475c3a0c2af8f5/2.jpg?t=1329466577",
"user":{
"id":318336,
"username":"nicolasrottiers",
"firstname":"Nicolas",
"lastname":"Rottiers",
"city":"",
"country":"FRANCE",
"upgrade_status":0,
"fullname":"Nicolas Rottiers",
"userpic_url":"http://acdn.500px.net/318336/0def2a20177ee98887d633fd38478d294329aaaf/1.jpg?127"}},{
"id":5109187,
"name":"Who are you with Nikon?",
"description":"A recent technique that i tried, and i really liked the results!\r\n\r\nThis is my latest shot, to show the love i have for my camera",
"times_viewed":767,
"rating":98.4,
"created_at":"2012-02-17T13:22:07-05:00",
"category":15,
"privacy":false,
"votes_count":75,
"favorites_count":31,
"comments_count":40,
"nsfw":false,
"image_url":"http://pcdn.500px.net/5109187/74750abddbf79f358d7d6897488e922baf3ec7d9/2.jpg",
"user":{
"id":153205,
"username":"RilindHoxha",
"firstname":"Rilind",
"lastname":"H",
"city":"Skopje",
"country":"Macedonia",
"upgrade_status":0,
"fullname":"Rilind H",
"userpic_url":"http://acdn.500px.net/153205/82deaa7569874a2d221ec12d4f2273d0ef3e916b/1.jpg?0"}},{
"id":5103248,
"name":"Elanus Caeruleus",
"description":"Black-shouldered Kite",
"times_viewed":2064,
"rating":98.4,
"created_at":"2012-02-17T07:47:14-05:00",
"category":11,
"privacy":false,
"votes_count":257,
"favorites_count":97,
"comments_count":187,
"nsfw":false,
"image_url":"http://pcdn.500px.net/5103248/c2c4ccabe6c0d7421ebfa69d239f97bf3c1553d4/2.jpg",
"user":{
"id":374306,
"username":"ddarling",
"firstname":"Desir\u00e9",
"lastname":"Darling",
"city":"St Francis Bay",
"country":"South Africa",
"upgrade_status":0,
"fullname":"Desir\u00e9 Darling",
"userpic_url":"http://acdn.500px.net/374306/d19e32402edffc066788b66d5b8e11532387e391/1.jpg?0"}},{
"id":5102634,
"name":"Birds, nr. Chilliwack, BC",
"description":"",
"times_viewed":1599,
"rating":98.4,
"created_at":"2012-02-17T07:07:07-05:00",
"category":17,
"privacy":false,
"votes_count":187,
"favorites_count":97,
"comments_count":68,
"nsfw":false,
"image_url":"http://pcdn.500px.net/5102634/7d3fffe8449a72bd3b955cb39e05b3c98a5fc347/2.jpg",
"user":{
"id":601682,
"username":"danbarham",
"firstname":"Dan",
"lastname":"Barham",
"city":"Vancouver",
"country":"Canada",
"upgrade_status":0,
"fullname":"Dan Barham",
"userpic_url":"http://acdn.500px.net/601682/84be4fe99a40f19707e4021f7e4d3ad30ba4df05/1.jpg?1"}}]}

