{
"feature":"user",
"filters":{
"category":false,
"exclude":false,
"user_id":1},
"current_page":1,
"total_pages":24,
"total_items":471,
"photos":[{
"id":710,
"name":"My view of Lvov",
"description":"",
"times_viewed":781,
"rating":21.1,
"created_at":"2009-11-10T00:38:12-05:00",
"category":0,
"privacy":false,
"votes_count":16,
"favorites_count":0,
"comments_count":6,
"nsfw":false,
"image_url":"http://pcdn.500px.net/710/e9ac568ba1515d20157ddcc24207c5c62aded596/2.jpg",
"user":{
"id":1,
"username":"tchebotarev",
"firstname":"Evgeny",
"lastname":"Tchebotarev",
"city":"Toronto",
"country":"Canada",
"upgrade_status":2,
"fullname":"Evgeny Tchebotarev",
"userpic_url":"http://acdn.500px.net/1/34059c97bf3c79f4923cd083756e6a8d726fa956/1.jpg?127"}},{
"id":1540,
"name":"Good morning!",
"description":"",
"times_viewed":480,
"rating":24.8,
"created_at":"2009-11-13T01:17:44-05:00",
"category":0,
"privacy":false,
"votes_count":14,
"favorites_count":0,
"comments_count":0,
"nsfw":false,
"image_url":"http://pcdn.500px.net/1540/bbb35ec4b5bbf714653e8e5127e05b865aae373a/2.jpg",
"user":{
"id":1,
"username":"tchebotarev",
"firstname":"Evgeny",
"lastname":"Tchebotarev",
"city":"Toronto",
"country":"Canada",
"upgrade_status":2,
"fullname":"Evgeny Tchebotarev",
"userpic_url":"http://acdn.500px.net/1/34059c97bf3c79f4923cd083756e6a8d726fa956/1.jpg?127"}},{
"id":1543,
"name":"Autumn Log",
"description":"",
"times_viewed":448,
"rating":13.1,
"created_at":"2009-11-13T01:18:04-05:00",
"category":0,
"privacy":false,
"votes_count":13,
"favorites_count":0,
"comments_count":1,
"nsfw":false,
"image_url":"http://pcdn.500px.net/1543/11b708f5cfa0f44e85d449461ae1dca410df8801/2.jpg",
"user":{
"id":1,
"username":"tchebotarev",
"firstname":"Evgeny",
"lastname":"Tchebotarev",
"city":"Toronto",
"country":"Canada",
"upgrade_status":2,
"fullname":"Evgeny Tchebotarev",
"userpic_url":"http://acdn.500px.net/1/34059c97bf3c79f4923cd083756e6a8d726fa956/1.jpg?127"}},{
"id":5972,
"name":"Net",
"description":"",
"times_viewed":398,
"rating":24.9,
"created_at":"2009-11-25T00:39:24-05:00",
"category":0,
"privacy":false,
"votes_count":6,
"favorites_count":0,
"comments_count":3,
"nsfw":false,
"image_url":"http://pcdn.500px.net/5972/1afb843c2fdb4c34482d3b59a9b5494a370085e8/2.jpg",
"user":{
"id":1,
"username":"tchebotarev",
"firstname":"Evgeny",
"lastname":"Tchebotarev",
"city":"Toronto",
"country":"Canada",
"upgrade_status":2,
"fullname":"Evgeny Tchebotarev",
"userpic_url":"http://acdn.500px.net/1/34059c97bf3c79f4923cd083756e6a8d726fa956/1.jpg?127"}},{
"id":9137,
"name":"Zipping through",
"description":"\u0412\u0435\u043b\u043e\u0441\u0438\u043f\u0435\u0434\u0438\u0441\u0442, \u043f\u0440\u043e\u0435\u0437\u0436\u0430\u044e\u0449\u0438\u0445 \u043c\u0438\u043c\u043e \u043c\u0435\u0434\u043b\u0435\u043d\u043d\u043e\u0433\u043e \u0437\u0430\u0442\u0432\u043e\u0440\u0430 \u043a\u0430\u043c\u0435\u0440\u044b \u0442\u0451\u043f\u043b\u044b\u043c \u043e\u0441\u0435\u043d\u043d\u0438\u043c \u0432\u0435\u0447\u0435\u0440\u043e\u043c \u0432 \u0422\u043e\u0440\u043e\u043d\u0442\u043e",
"times_viewed":460,
"rating":26.5,
"created_at":"2009-12-07T22:17:31-05:00",
"category":0,
"privacy":false,
"votes_count":18,
"favorites_count":0,
"comments_count":2,
"nsfw":false,
"image_url":"http://pcdn.500px.net/9137/c20894fe3c069f0609bec808df7c43c43078b035/2.jpg",
"user":{
"id":1,
"username":"tchebotarev",
"firstname":"Evgeny",
"lastname":"Tchebotarev",
"city":"Toronto",
"country":"Canada",
"upgrade_status":2,
"fullname":"Evgeny Tchebotarev",
"userpic_url":"http://acdn.500px.net/1/34059c97bf3c79f4923cd083756e6a8d726fa956/1.jpg?127"}},{
"id":16762,
"name":"Sun across",
"description":"\u042f\u043d\u0432\u0430\u0440\u044c 2009 \u0433\u043e\u0434\u0430. \u041f\u0443\u0442\u0435\u0448\u0435\u0441\u0442\u0432\u0438\u0435 \u043f\u043e \u0428\u0432\u0435\u0439\u0446\u0430\u0440\u0438\u0438 \u0447\u0435\u0440\u0435\u0437 \u043d\u0435\u0431\u043e\u043b\u044c\u0448\u0438\u0435 \u0433\u043e\u0440\u043e\u0434\u0430 \u0432\u043e\u043a\u0440\u0443\u0433 \u0416\u0435\u043d\u0435\u0432\u0441\u043a\u043e\u0433\u043e \u043e\u0437\u0435\u0440\u0430. \u0412\u043e\u043a\u0440\u0443\u0433 \u2014 \u0441\u043f\u043b\u043e\u0448\u043d\u044b\u0435 \u044f\u0440\u043a\u0438\u0435 \u043a\u0440\u0430\u0441\u043a\u0438, \u0442\u0435\u043f\u043b\u043e \u0438 \u0441\u043e\u043b\u043d\u0446\u0435 \u043d\u0435\u0441\u043c\u043e\u0442\u0440\u044f \u043d\u0430 \u0433\u043e\u0440\u044b \u0438 \u043c\u0435\u0441\u044f\u0446 \u044f\u043d\u0432\u0430\u0440\u044c \u0438 \u0441\u0438\u043b\u044c\u043d\u043e\u0435 \u0436\u0435\u043b\u0430\u043d\u0438\u0435 \u043e\u0441\u0442\u0430\u0442\u044c\u0441\u044f \u0437\u0434\u0435\u0441\u044c \u043f\u043e\u0434\u043e\u043b\u044c\u0448\u0435",
"times_viewed":412,
"rating":21.8,
"created_at":"2010-01-02T13:38:16-05:00",
"category":0,
"privacy":false,
"votes_count":5,
"favorites_count":0,
"comments_count":1,
"nsfw":false,
"image_url":"http://pcdn.500px.net/16762/18dfdaa7cfc646a2ccddd9717fafef576f79bc6b/2.jpg",
"user":{
"id":1,
"username":"tchebotarev",
"firstname":"Evgeny",
"lastname":"Tchebotarev",
"city":"Toronto",
"country":"Canada",
"upgrade_status":2,
"fullname":"Evgeny Tchebotarev",
"userpic_url":"http://acdn.500px.net/1/34059c97bf3c79f4923cd083756e6a8d726fa956/1.jpg?127"}},{
"id":16763,
"name":"The feel of mountains",
"description":"\u042f\u043d\u0432\u0430\u0440\u044c 2009 \u0433\u043e\u0434\u0430. \u041f\u0443\u0442\u0435\u0448\u0435\u0441\u0442\u0432\u0438\u0435 \u043f\u043e \u0428\u0432\u0435\u0439\u0446\u0430\u0440\u0438\u0438 \u0447\u0435\u0440\u0435\u0437 \u043d\u0435\u0431\u043e\u043b\u044c\u0448\u0438\u0435 \u0433\u043e\u0440\u043e\u0434\u0430 \u0432\u043e\u043a\u0440\u0443\u0433 \u0416\u0435\u043d\u0435\u0432\u0441\u043a\u043e\u0433\u043e \u043e\u0437\u0435\u0440\u0430. \u0412\u043e\u043a\u0440\u0443\u0433 \u2014 \u0441\u043f\u043b\u043e\u0448\u043d\u044b\u0435 \u044f\u0440\u043a\u0438\u0435 \u043a\u0440\u0430\u0441\u043a\u0438, \u0442\u0435\u043f\u043b\u043e \u0438 \u0441\u043e\u043b\u043d\u0446\u0435 \u043d\u0435\u0441\u043c\u043e\u0442\u0440\u044f \u043d\u0430 \u0433\u043e\u0440\u044b \u0438 \u043c\u0435\u0441\u044f\u0446 \u044f\u043d\u0432\u0430\u0440\u044c \u0438 \u0441\u0438\u043b\u044c\u043d\u043e\u0435 \u0436\u0435\u043b\u0430\u043d\u0438\u0435 \u043e\u0441\u0442\u0430\u0442\u044c\u0441\u044f \u0437\u0434\u0435\u0441\u044c \u043f\u043e\u0434\u043e\u043b\u044c\u0448\u0435",
"times_viewed":491,
"rating":20.5,
"created_at":"2010-01-02T13:38:22-05:00",
"category":0,
"privacy":false,
"votes_count":7,
"favorites_count":0,
"comments_count":2,
"nsfw":false,
"image_url":"http://pcdn.500px.net/16763/22262a9b05c2356cb10d38b62b22cef9aad18168/2.jpg",
"user":{
"id":1,
"username":"tchebotarev",
"firstname":"Evgeny",
"lastname":"Tchebotarev",
"city":"Toronto",
"country":"Canada",
"upgrade_status":2,
"fullname":"Evgeny Tchebotarev",
"userpic_url":"http://acdn.500px.net/1/34059c97bf3c79f4923cd083756e6a8d726fa956/1.jpg?127"}},{
"id":16764,
"name":"Gruyeres",
"description":"\u042f\u043d\u0432\u0430\u0440\u044c 2009 \u0433\u043e\u0434\u0430. \u041f\u0443\u0442\u0435\u0448\u0435\u0441\u0442\u0432\u0438\u0435 \u043f\u043e \u0428\u0432\u0435\u0439\u0446\u0430\u0440\u0438\u0438 \u0447\u0435\u0440\u0435\u0437 \u043d\u0435\u0431\u043e\u043b\u044c\u0448\u0438\u0435 \u0433\u043e\u0440\u043e\u0434\u0430 \u0432\u043e\u043a\u0440\u0443\u0433 \u0416\u0435\u043d\u0435\u0432\u0441\u043a\u043e\u0433\u043e \u043e\u0437\u0435\u0440\u0430. \u0412\u043e\u043a\u0440\u0443\u0433 \u2014 \u0441\u043f\u043b\u043e\u0448\u043d\u044b\u0435 \u044f\u0440\u043a\u0438\u0435 \u043a\u0440\u0430\u0441\u043a\u0438, \u0442\u0435\u043f\u043b\u043e \u0438 \u0441\u043e\u043b\u043d\u0446\u0435 \u043d\u0435\u0441\u043c\u043e\u0442\u0440\u044f \u043d\u0430 \u0433\u043e\u0440\u044b \u0438 \u043c\u0435\u0441\u044f\u0446 \u044f\u043d\u0432\u0430\u0440\u044c \u0438 \u0441\u0438\u043b\u044c\u043d\u043e\u0435 \u0436\u0435\u043b\u0430\u043d\u0438\u0435 \u043e\u0441\u0442\u0430\u0442\u044c\u0441\u044f \u0437\u0434\u0435\u0441\u044c \u043f\u043e\u0434\u043e\u043b\u044c\u0448\u0435",
"times_viewed":439,
"rating":11.1,
"created_at":"2010-01-02T13:38:27-05:00",
"category":0,
"privacy":false,
"votes_count":6,
"favorites_count":0,
"comments_count":1,
"nsfw":false,
"image_url":"http://pcdn.500px.net/16764/3d5b3564998ddada8df6011f08ab9adde69e33e1/2.jpg",
"user":{
"id":1,
"username":"tchebotarev",
"firstname":"Evgeny",
"lastname":"Tchebotarev",
"city":"Toronto",
"country":"Canada",
"upgrade_status":2,
"fullname":"Evgeny Tchebotarev",
"userpic_url":"http://acdn.500px.net/1/34059c97bf3c79f4923cd083756e6a8d726fa956/1.jpg?127"}},{
"id":18293,
"name":"A house",
"description":"A famous Toronto mathematician Dr. James Stewart has built an amazing \"Integral House\" in the hidden ravine in Toronto. It's beautiful architecture is specially designed to have the most amazing acoustics inside. And the house features a separate concert hall for private concerts",
"times_viewed":408,
"rating":23.1,
"created_at":"2010-01-06T14:29:29-05:00",
"category":0,
"privacy":false,
"votes_count":8,
"favorites_count":0,
"comments_count":0,
"nsfw":false,
"image_url":"http://pcdn.500px.net/18293/ac525def0fa4da9e85546037aa9f3e044c8bc035/2.jpg",
"user":{
"id":1,
"username":"tchebotarev",
"firstname":"Evgeny",
"lastname":"Tchebotarev",
"city":"Toronto",
"country":"Canada",
"upgrade_status":2,
"fullname":"Evgeny Tchebotarev",
"userpic_url":"http://acdn.500px.net/1/34059c97bf3c79f4923cd083756e6a8d726fa956/1.jpg?127"}},{
"id":18378,
"name":"Winter in the Forest",
"description":"\u041f\u0430\u043d\u043e\u0440\u0430\u043c\u0430 \u0438\u0437 4 \u043a\u0430\u0434\u0440\u043e\u0432",
"times_viewed":371,
"rating":14.5,
"created_at":"2010-01-06T19:48:29-05:00",
"category":3,
"privacy":false,
"votes_count":7,
"favorites_count":0,
"comments_count":0,
"nsfw":false,
"image_url":"http://pcdn.500px.net/18378/06e2c7813629a723b8d8d308a5cdda4f7eb74e49/2.jpg",
"user":{
"id":1,
"username":"tchebotarev",
"firstname":"Evgeny",
"lastname":"Tchebotarev",
"city":"Toronto",
"country":"Canada",
"upgrade_status":2,
"fullname":"Evgeny Tchebotarev",
"userpic_url":"http://acdn.500px.net/1/34059c97bf3c79f4923cd083756e6a8d726fa956/1.jpg?127"}},{
"id":21051,
"name":"Elegance",
"description":"Bosque del Apache Wildlife Refuge, New Mexico, USA",
"times_viewed":485,
"rating":25.2,
"created_at":"2010-01-12T01:14:25-05:00",
"category":11,
"privacy":false,
"votes_count":9,
"favorites_count":0,
"comments_count":4,
"nsfw":false,
"image_url":"http://pcdn.500px.net/21051/9db1393e55203aecc1f0d789a4e48ac922b463e9/2.jpg",
"user":{
"id":1,
"username":"tchebotarev",
"firstname":"Evgeny",
"lastname":"Tchebotarev",
"city":"Toronto",
"country":"Canada",
"upgrade_status":2,
"fullname":"Evgeny Tchebotarev",
"userpic_url":"http://acdn.500px.net/1/34059c97bf3c79f4923cd083756e6a8d726fa956/1.jpg?127"}},{
"id":25421,
"name":"Bird and a Bird",
"description":"Two cranes are flying in for a night in a New Mexico's Bosque del Apache, a wildlife refuge",
"times_viewed":563,
"rating":27.1,
"created_at":"2010-01-23T12:18:17-05:00",
"category":11,
"privacy":false,
"votes_count":10,
"favorites_count":0,
"comments_count":0,
"nsfw":false,
"image_url":"http://pcdn.500px.net/25421/4ed2db89d18d3f47a1011e7484dc0facd40238bb/2.jpg",
"user":{
"id":1,
"username":"tchebotarev",
"firstname":"Evgeny",
"lastname":"Tchebotarev",
"city":"Toronto",
"country":"Canada",
"upgrade_status":2,
"fullname":"Evgeny Tchebotarev",
"userpic_url":"http://acdn.500px.net/1/34059c97bf3c79f4923cd083756e6a8d726fa956/1.jpg?127"}},{
"id":34485,
"name":"America",
"description":"What a strange place for an American flag. Seen in Santa Fe, New Mexico on a trip",
"times_viewed":724,
"rating":20.5,
"created_at":"2010-02-16T12:45:19-05:00",
"category":3,
"privacy":false,
"votes_count":7,
"favorites_count":0,
"comments_count":6,
"nsfw":false,
"image_url":"http://pcdn.500px.net/34485/1c62d552acbc7636963977f41789bfe8f824ff3c/2.jpg",
"user":{
"id":1,
"username":"tchebotarev",
"firstname":"Evgeny",
"lastname":"Tchebotarev",
"city":"Toronto",
"country":"Canada",
"upgrade_status":2,
"fullname":"Evgeny Tchebotarev",
"userpic_url":"http://acdn.500px.net/1/34059c97bf3c79f4923cd083756e6a8d726fa956/1.jpg?127"}},{
"id":34486,
"name":"Snow and Skulls",
"description":"A stormy morning in Santa Fe",
"times_viewed":477,
"rating":27.1,
"created_at":"2010-02-16T12:45:24-05:00",
"category":6,
"privacy":false,
"votes_count":10,
"favorites_count":0,
"comments_count":1,
"nsfw":false,
"image_url":"http://pcdn.500px.net/34486/e675f08a08d39d9cdc40f251303d6b0d893a7d5b/2.jpg",
"user":{
"id":1,
"username":"tchebotarev",
"firstname":"Evgeny",
"lastname":"Tchebotarev",
"city":"Toronto",
"country":"Canada",
"upgrade_status":2,
"fullname":"Evgeny Tchebotarev",
"userpic_url":"http://acdn.500px.net/1/34059c97bf3c79f4923cd083756e6a8d726fa956/1.jpg?127"}},{
"id":37298,
"name":"Conversation in different colors",
"description":"\u0425\u043e\u0440\u0432\u0430\u0442\u0438\u044f",
"times_viewed":415,
"rating":24.9,
"created_at":"2010-02-23T15:59:26-05:00",
"category":8,
"privacy":false,
"votes_count":6,
"favorites_count":0,
"comments_count":2,
"nsfw":false,
"image_url":"http://pcdn.500px.net/37298/d90385d195d409fad9b9b05fe57795cb52c5e5a4/2.jpg",
"user":{
"id":1,
"username":"tchebotarev",
"firstname":"Evgeny",
"lastname":"Tchebotarev",
"city":"Toronto",
"country":"Canada",
"upgrade_status":2,
"fullname":"Evgeny Tchebotarev",
"userpic_url":"http://acdn.500px.net/1/34059c97bf3c79f4923cd083756e6a8d726fa956/1.jpg?127"}},{
"id":43198,
"name":"Lost in the land",
"description":"On a road from somewhere to somewhere...",
"times_viewed":381,
"rating":27.1,
"created_at":"2010-03-11T13:01:15-05:00",
"category":8,
"privacy":false,
"votes_count":7,
"favorites_count":1,
"comments_count":1,
"nsfw":false,
"image_url":"http://pcdn.500px.net/43198/e85087aab45e3dde9d97b1b9974c5b535453a89d/2.jpg",
"user":{
"id":1,
"username":"tchebotarev",
"firstname":"Evgeny",
"lastname":"Tchebotarev",
"city":"Toronto",
"country":"Canada",
"upgrade_status":2,
"fullname":"Evgeny Tchebotarev",
"userpic_url":"http://acdn.500px.net/1/34059c97bf3c79f4923cd083756e6a8d726fa956/1.jpg?127"}},{
"id":47685,
"name":"The White House",
"description":"\u041d\u0435 \u0443\u0434\u0435\u0440\u0436\u0430\u043b\u0441\u044f \u043e\u0442 \u043a\u043b\u0430\u0441\u0441\u0438\u0447\u0435\u0441\u043a\u043e\u0433\u043e \u043a\u0430\u0434\u0440\u0430 \u0411\u0435\u043b\u043e\u0433\u043e \u0414\u043e\u043c\u0430. ",
"times_viewed":532,
"rating":15.8,
"created_at":"2010-03-23T08:51:03-04:00",
"category":3,
"privacy":false,
"votes_count":11,
"favorites_count":0,
"comments_count":3,
"nsfw":false,
"image_url":"http://pcdn.500px.net/47685/7d3372be4da075e567164b4544b5193cda9fa65c/2.jpg",
"user":{
"id":1,
"username":"tchebotarev",
"firstname":"Evgeny",
"lastname":"Tchebotarev",
"city":"Toronto",
"country":"Canada",
"upgrade_status":2,
"fullname":"Evgeny Tchebotarev",
"userpic_url":"http://acdn.500px.net/1/34059c97bf3c79f4923cd083756e6a8d726fa956/1.jpg?127"}},{
"id":50001,
"name":"Hell's Riders",
"description":"Bikers on Route 66",
"times_viewed":655,
"rating":23.3,
"created_at":"2010-03-29T14:55:49-04:00",
"category":7,
"privacy":false,
"votes_count":13,
"favorites_count":0,
"comments_count":2,
"nsfw":false,
"image_url":"http://pcdn.500px.net/50001/0645373f54256a0d3690862cd49b3d98850f8f57/2.jpg",
"user":{
"id":1,
"username":"tchebotarev",
"firstname":"Evgeny",
"lastname":"Tchebotarev",
"city":"Toronto",
"country":"Canada",
"upgrade_status":2,
"fullname":"Evgeny Tchebotarev",
"userpic_url":"http://acdn.500px.net/1/34059c97bf3c79f4923cd083756e6a8d726fa956/1.jpg?127"}},{
"id":170006,
"name":"Farmer Supermarket",
"description":"A farm supermarket on our way home at upstate New York. See blog post with details: http://500px.com/blindmonk/blog",
"times_viewed":567,
"rating":25.7,
"created_at":"2010-10-01T13:59:47-04:00",
"category":3,
"privacy":false,
"votes_count":9,
"favorites_count":1,
"comments_count":1,
"nsfw":false,
"image_url":"http://pcdn.500px.net/170006/4929732ce74f43ce0d0516383659844fc64606ad/2.jpg",
"user":{
"id":1,
"username":"tchebotarev",
"firstname":"Evgeny",
"lastname":"Tchebotarev",
"city":"Toronto",
"country":"Canada",
"upgrade_status":2,
"fullname":"Evgeny Tchebotarev",
"userpic_url":"http://acdn.500px.net/1/34059c97bf3c79f4923cd083756e6a8d726fa956/1.jpg?127"}},{
"id":211998,
"name":"Defying Gravity",
"description":"Another shot from a small space series with Liza. More photos and story here: http://500px.com/blindmonk/blog ",
"times_viewed":966,
"rating":22.5,
"created_at":"2010-11-07T15:48:18-05:00",
"category":14,
"privacy":false,
"votes_count":14,
"favorites_count":1,
"comments_count":3,
"nsfw":false,
"image_url":"http://pcdn.500px.net/211998/66fad41d5bd83e9e846ce5fae41bd1af39ad9f2b/2.jpg",
"user":{
"id":1,
"username":"tchebotarev",
"firstname":"Evgeny",
"lastname":"Tchebotarev",
"city":"Toronto",
"country":"Canada",
"upgrade_status":2,
"fullname":"Evgeny Tchebotarev",
"userpic_url":"http://acdn.500px.net/1/34059c97bf3c79f4923cd083756e6a8d726fa956/1.jpg?127"}}]}

